blatt08/testbench.vcd
$date
  Wed Dec 22 23:28:19 2021
$end
$version
  GHDL v0
$end
$timescale
  1 fs
$end
$var reg 4 ! adresse[0:3] $end
$var reg 32 " din[0:31] $end
$var reg 32 # do[0:31] $end
$var reg 1 $ read_write $end
$scope module testobject $end
$var reg 4 % adr[0:3] $end
$var reg 32 & din[0:31] $end
$var reg 32 ' do[0:31] $end
$var reg 1 ( read_write $end
$comment ram_m is not handled $end
$upscope $end
$enddefinitions $end
#0
b0000 !
b00000000000000000000000000000000 "
b00000000000000000000000000000000 #
1$
b0000 %
b00000000000000000000000000000000 &
b00000000000000000000000000000000 '
1(
#1000000
b1000 !
b1000 %
#5000000
b00000000000000000000000000000001 "
b00000000000000000000000000000001 &
#7000000
#20000000
0$
0(
#31000000
1$
1(
#51000000
#150000000
b0001 !
b00000000000000000000000001010000 "
b0001 %
b00000000000000000000000001010000 &
#156000000
#160000000
b1000 !
b1000 %
#200000000
#300000000
b00000000000000000000000001010101 "
b00000000000000000000000001010101 &
#350000000
b0101 !
b0101 %
#356000000
#360000000
0$
0(
#365000000
b00000000000000000000000001010111 "
b00000000000000000000000001010111 &
#381000000
1$
1(
#400000000
#420000000
0$
0(
#430000000
b00000000000000000000000010000001 "
b00000000000000000000000010000001 &
#446000000
1$
1(
#560000000
b00000000000000000000000011110000 "
b00000000000000000000000011110000 &
#570000000
0$
0(
#580000000
b1000 !
1$
b1000 %
1(
#586000000
b00000000000000000000000000000001 #
b00000000000000000000000000000001 '
#630000000
#700000000
b0000 !
b0000 %
#706000000
b00000000000000000000000000000000 #
b00000000000000000000000000000000 '
