blatt02/deneme2/testbench.vcd
$date
  Wed Oct 27 21:04:54 2021
$end
$version
  GHDL v0
$end
$timescale
  1 fs
$end
$var reg 1 ! a $end
$var reg 1 " b $end
$var reg 1 # c $end
$var reg 1 $ d $end
$enddefinitions $end
#0
0!
0"
0#
0$
#10000000
1"
1$
#20000000
1!
1#
#30000000
X!
W"
X#
X$
#40000000
1!
H"
1#
1$
#50000000
W!
Z"
X#
X$
#60000000
L!
H"
0#
1$
#70000000
W"
X$
#80000000
Z!
0"
