blatt06/6.2/testbench.vcd
$date
  Fri Dec 10 14:17:37 2021
$end
$version
  GHDL v0
$end
$timescale
  1 fs
$end
$var reg 1 ! clk $end
$var reg 1 " finished $end
$var reg 1 # d $end
$var reg 1 $ y $end
$scope module bitmuster1 $end
$var reg 1 % clk $end
$var reg 1 & reset $end
$var reg 1 ' d $end
$var reg 1 ( y $end
$comment current_state is not handled $end
$comment next_state is not handled $end
$upscope $end
$enddefinitions $end
#0
0!
0"
1#
0$
0%
0&
1'
0(
#5000000
1!
1%
#10000000
0!
0#
0%
0'
#15000000
1!
1%
#20000000
0!
1#
0%
1'
#25000000
1!
1$
1%
1(
#30000000
0!
0%
#35000000
1!
0$
1%
0(
#40000000
0!
0#
0%
0'
#45000000
1!
1%
#50000000
0!
1#
0%
1'
#55000000
1!
1%
#60000000
0!
0#
0%
0'
#65000000
1!
1%
#70000000
0!
1#
0%
1'
#75000000
1!
1$
1%
1(
#80000000
0!
0%
#85000000
1!
0$
1%
0(
#90000000
0!
0#
0%
0'
#95000000
1!
1%
#100000000
0!
1#
0%
1'
#105000000
1!
1%
#110000000
0!
0#
0%
0'
#115000000
1!
1%
#120000000
0!
1#
0%
1'
#125000000
1!
1$
1%
1(
#130000000
0!
0%
#135000000
1!
0$
1%
0(
#140000000
0!
1"
0%
