blatt02/2.2.e/testbench.vcd
$date
  Thu Oct 28 23:02:41 2021
$end
$version
  GHDL v0
$end
$timescale
  1 fs
$end
$var reg 1 ! a $end
$var reg 1 " b $end
$var reg 1 # c $end
$var reg 1 $ d $end
$scope module and_g $end
$var reg 1 % input1 $end
$var reg 1 & input2 $end
$var reg 1 ' input3 $end
$var reg 1 ( and_result $end
$var reg 1 ) and_gate $end
$upscope $end
$enddefinitions $end
#0
0!
0"
0#
U$
0%
0&
0'
U(
0)
#10000000
1#
1'
#15000000
0$
0(
#20000000
1"
0#
1&
0'
#30000000
1#
1'
#40000000
1!
0"
0#
1%
0&
0'
#50000000
1#
1'
#60000000
1"
0#
1&
0'
#70000000
1#
1'
1)
#80000000
#85000000
1$
1(
