blatt09/mips-hapra-sc/mips/testbench.vcd
$date
  Tue Jan 18 16:55:09 2022
$end
$version
  GHDL v0
$end
$timescale
  1 fs
$end
$var reg 1 ! clk $end
$var reg 1 " finished $end
$var reg 32 # pc[31:0] $end
$var reg 32 $ readdata[31:0] $end
$var reg 32 % aluout[31:0] $end
$var reg 32 & writedata[31:0] $end
$var reg 1 ' memwrite $end
$var reg 1 ( reset $end
$var reg 32 ) instr[31:0] $end
$scope module mips1 $end
$var reg 1 * clk $end
$var reg 1 + reset $end
$var reg 32 , pc[31:0] $end
$var reg 32 - instr[31:0] $end
$var reg 32 . readdata[31:0] $end
$var reg 32 / aluout[31:0] $end
$var reg 32 0 writedata[31:0] $end
$var reg 1 1 memwrite $end
$var reg 1 2 memtoreg $end
$var reg 1 3 alusrc $end
$var reg 1 4 regdst $end
$var reg 1 5 regwrite $end
$var reg 1 6 jump $end
$var reg 1 7 pcsrc $end
$var reg 1 8 zero $end
$var reg 3 9 alucontrol[2:0] $end
$scope module mips_control $end
$var reg 6 : op[5:0] $end
$var reg 6 ; funct[5:0] $end
$var reg 1 < zero $end
$var reg 1 = memtoreg $end
$var reg 1 > memwrite $end
$var reg 1 ? pcsrc $end
$var reg 1 @ alusrc $end
$var reg 1 A regdst $end
$var reg 1 B regwrite $end
$var reg 1 C jump $end
$var reg 3 D alucontrol[2:0] $end
$var reg 2 E aluop[1:0] $end
$var reg 1 F branch $end
$scope module md $end
$var reg 6 G op[5:0] $end
$var reg 1 H memtoreg $end
$var reg 1 I memwrite $end
$var reg 1 J branch $end
$var reg 1 K alusrc $end
$var reg 1 L regdst $end
$var reg 1 M regwrite $end
$var reg 1 N jump $end
$var reg 2 O aluop[1:0] $end
$var reg 9 P controls[8:0] $end
$upscope $end
$scope module ad $end
$var reg 6 Q funct[5:0] $end
$var reg 2 R aluop[1:0] $end
$var reg 3 S alucontrol[2:0] $end
$upscope $end
$upscope $end
$scope module mips_datapath $end
$var reg 1 T clk $end
$var reg 1 U reset $end
$var reg 1 V memtoreg $end
$var reg 1 W pcsrc $end
$var reg 1 X alusrc $end
$var reg 1 Y regdst $end
$var reg 1 Z regwrite $end
$var reg 1 [ jump $end
$var reg 3 \ alucontrol[2:0] $end
$var reg 32 ] readdata[31:0] $end
$var reg 32 ^ instr[31:0] $end
$var reg 1 _ zero $end
$var reg 32 ` pc[31:0] $end
$var reg 32 a aluout[31:0] $end
$var reg 32 b writedata[31:0] $end
$var reg 5 c writereg[4:0] $end
$var reg 32 d pcjump[31:0] $end
$var reg 32 e pcnext[31:0] $end
$var reg 32 f pcnextbr[31:0] $end
$var reg 32 g pcplus4[31:0] $end
$var reg 32 h pcbranch[31:0] $end
$var reg 32 i signimm[31:0] $end
$var reg 32 j signimmsh[31:0] $end
$var reg 32 k srca[31:0] $end
$var reg 32 l srcb[31:0] $end
$var reg 32 m result[31:0] $end
$scope module pcreg $end
$var reg 1 n clk $end
$var reg 1 o reset $end
$var reg 32 p d[31:0] $end
$var reg 32 q q[31:0] $end
$upscope $end
$scope module pcadd1 $end
$var reg 32 r a[31:0] $end
$var reg 32 s b[31:0] $end
$var reg 32 t y[31:0] $end
$upscope $end
$scope module immsh $end
$var reg 32 u a[31:0] $end
$var reg 32 v y[31:0] $end
$upscope $end
$scope module pcadd2 $end
$var reg 32 w a[31:0] $end
$var reg 32 x b[31:0] $end
$var reg 32 y y[31:0] $end
$upscope $end
$scope module pcbrmux $end
$var reg 32 z d0[31:0] $end
$var reg 32 { d1[31:0] $end
$var reg 1 | s $end
$var reg 32 } y[31:0] $end
$upscope $end
$scope module pcmux $end
$var reg 32 !" d0[31:0] $end
$var reg 32 "" d1[31:0] $end
$var reg 1 #" s $end
$var reg 32 $" y[31:0] $end
$upscope $end
$scope module rf $end
$var reg 1 %" clk $end
$var reg 1 &" we3 $end
$var reg 5 '" a1[4:0] $end
$var reg 5 (" a2[4:0] $end
$var reg 5 )" a3[4:0] $end
$var reg 32 *" wd3[31:0] $end
$var reg 32 +" rd1[31:0] $end
$var reg 32 ," rd2[31:0] $end
$comment mem is not handled $end
$upscope $end
$scope module wrmux $end
$var reg 5 -" d0[4:0] $end
$var reg 5 ." d1[4:0] $end
$var reg 1 /" s $end
$var reg 5 0" y[4:0] $end
$upscope $end
$scope module resmux $end
$var reg 32 1" d0[31:0] $end
$var reg 32 2" d1[31:0] $end
$var reg 1 3" s $end
$var reg 32 4" y[31:0] $end
$upscope $end
$scope module se $end
$var reg 16 5" a[15:0] $end
$var reg 32 6" aext[31:0] $end
$upscope $end
$scope module srcbmux $end
$var reg 32 7" d0[31:0] $end
$var reg 32 8" d1[31:0] $end
$var reg 1 9" s $end
$var reg 32 :" y[31:0] $end
$upscope $end
$scope module mainalu $end
$var reg 32 ;" a[31:0] $end
$var reg 32 <" b[31:0] $end
$var reg 3 =" alucontrol[2:0] $end
$var reg 32 >" result[31:0] $end
$var reg 1 ?" zero $end
$upscope $end
$upscope $end
$upscope $end
$enddefinitions $end
#0
0!
0"
b00000000000000000000000000000000 #
b00000000000000000000000000000011 $
b00000000000000000000000000000000 %
bUUUUUUUUUUUUUUUUUUUUUUUUUUUUUUUU &
0'
0(
b10001100000000100000000000000000 )
0*
0+
b00000000000000000000000000000000 ,
b10001100000000100000000000000000 -
b00000000000000000000000000000011 .
b00000000000000000000000000000000 /
bUUUUUUUUUUUUUUUUUUUUUUUUUUUUUUUU 0
01
12
13
04
15
06
07
18
b010 9
b100011 :
b000000 ;
1<
1=
0>
0?
1@
0A
1B
0C
b010 D
b00 E
0F
b100011 G
1H
0I
0J
1K
0L
1M
0N
b00 O
b101001000 P
b000000 Q
b00 R
b010 S
0T
0U
1V
0W
1X
0Y
1Z
0[
b010 \
b00000000000000000000000000000011 ]
b10001100000000100000000000000000 ^
1_
b00000000000000000000000000000000 `
b00000000000000000000000000000000 a
bUUUUUUUUUUUUUUUUUUUUUUUUUUUUUUUU b
b00010 c
b00000000000010000000000000000000 d
b00000000000000000000000000000100 e
b00000000000000000000000000000100 f
b00000000000000000000000000000100 g
b00000000000000000000000000000100 h
b00000000000000000000000000000000 i
b00000000000000000000000000000000 j
b00000000000000000000000000000000 k
b00000000000000000000000000000000 l
b00000000000000000000000000000011 m
0n
0o
b00000000000000000000000000000100 p
b00000000000000000000000000000000 q
b00000000000000000000000000000000 r
b00000000000000000000000000000100 s
b00000000000000000000000000000100 t
b00000000000000000000000000000000 u
b00000000000000000000000000000000 v
b00000000000000000000000000000100 w
b00000000000000000000000000000000 x
b00000000000000000000000000000100 y
b00000000000000000000000000000100 z
b00000000000000000000000000000100 {
0|
b00000000000000000000000000000100 }
b00000000000000000000000000000100 !"
b00000000000010000000000000000000 ""
0#"
b00000000000000000000000000000100 $"
0%"
1&"
b00000 '"
b00010 ("
b00010 )"
b00000000000000000000000000000011 *"
b00000000000000000000000000000000 +"
bUUUUUUUUUUUUUUUUUUUUUUUUUUUUUUUU ,"
b00010 -"
b00000 ."
0/"
b00010 0"
b00000000000000000000000000000000 1"
b00000000000000000000000000000011 2"
13"
b00000000000000000000000000000011 4"
b0000000000000000 5"
b00000000000000000000000000000000 6"
bUUUUUUUUUUUUUUUUUUUUUUUUUUUUUUUU 7"
b00000000000000000000000000000000 8"
19"
b00000000000000000000000000000000 :"
b00000000000000000000000000000000 ;"
b00000000000000000000000000000000 <"
b010 ="
b00000000000000000000000000000000 >"
1?"
#5000000
1!
b00000000000000000000000000000100 #
1*
b00000000000000000000000000000100 ,
1T
b00000000000000000000000000000100 `
b00000000000000000000000000001000 e
b00000000000000000000000000001000 f
b00000000000000000000000000001000 g
b00000000000000000000000000001000 h
1n
b00000000000000000000000000001000 p
b00000000000000000000000000000100 q
b00000000000000000000000000000100 r
b00000000000000000000000000001000 t
b00000000000000000000000000001000 w
b00000000000000000000000000001000 y
b00000000000000000000000000001000 z
b00000000000000000000000000001000 {
b00000000000000000000000000001000 }
b00000000000000000000000000001000 !"
b00000000000000000000000000001000 $"
1%"
#10000000
0!
b00000000000000000000000000000111 $
b10001100000001100000000000000000 )
0*
b10001100000001100000000000000000 -
b00000000000000000000000000000111 .
0T
b00000000000000000000000000000111 ]
b10001100000001100000000000000000 ^
b00110 c
b00000000000110000000000000000000 d
b00000000000000000000000000000111 m
0n
b00000000000110000000000000000000 ""
0%"
b00110 ("
b00110 )"
b00000000000000000000000000000111 *"
b00110 -"
b00110 0"
b00000000000000000000000000000111 2"
b00000000000000000000000000000111 4"
#15000000
1!
b00000000000000000000000000001000 #
1*
b00000000000000000000000000001000 ,
1T
b00000000000000000000000000001000 `
b00000000000000000000000000001100 e
b00000000000000000000000000001100 f
b00000000000000000000000000001100 g
b00000000000000000000000000001100 h
1n
b00000000000000000000000000001100 p
b00000000000000000000000000001000 q
b00000000000000000000000000001000 r
b00000000000000000000000000001100 t
b00000000000000000000000000001100 w
b00000000000000000000000000001100 y
b00000000000000000000000000001100 z
b00000000000000000000000000001100 {
b00000000000000000000000000001100 }
b00000000000000000000000000001100 !"
b00000000000000000000000000001100 $"
1%"
#20000000
0!
b00000000000000000000000000000011 %
b00000000000000000000000000000111 &
b00000000010001100000000000000000 )
0*
b00000000010001100000000000000000 -
b00000000000000000000000000000011 /
b00000000000000000000000000000111 0
02
03
14
08
b--- 9
b000000 :
0<
0=
0@
1A
b--- D
b10 E
b000000 G
0H
0K
1L
b10 O
b110000010 P
b10 R
b--- S
0T
0V
0X
1Y
b--- \
b00000000010001100000000000000000 ^
0_
b00000000000000000000000000000011 a
b00000000000000000000000000000111 b
b00000 c
b00000001000110000000000000000000 d
b00000000000000000000000000000011 k
b00000000000000000000000000000111 l
b00000000000000000000000000000011 m
0n
b00000001000110000000000000000000 ""
0%"
b00010 '"
b00000 )"
b00000000000000000000000000000011 *"
b00000000000000000000000000000011 +"
b00000000000000000000000000000111 ,"
1/"
b00000 0"
b00000000000000000000000000000011 1"
03"
b00000000000000000000000000000011 4"
b00000000000000000000000000000111 7"
09"
b00000000000000000000000000000111 :"
b00000000000000000000000000000011 ;"
b00000000000000000000000000000111 <"
b--- ="
b00000000000000000000000000000011 >"
0?"
#25000000
1!
b00000000000000000000000000001100 #
1*
b00000000000000000000000000001100 ,
1T
b00000000000000000000000000001100 `
b00000000000000000000000000010000 e
b00000000000000000000000000010000 f
b00000000000000000000000000010000 g
b00000000000000000000000000010000 h
1n
b00000000000000000000000000010000 p
b00000000000000000000000000001100 q
b00000000000000000000000000001100 r
b00000000000000000000000000010000 t
b00000000000000000000000000010000 w
b00000000000000000000000000010000 y
b00000000000000000000000000010000 z
b00000000000000000000000000010000 {
b00000000000000000000000000010000 }
b00000000000000000000000000010000 !"
b00000000000000000000000000010000 $"
1%"
#30000000
0!
b00000000000000000000000000001010 %
b00000000010001100011100000100000 )
0*
b00000000010001100011100000100000 -
b00000000000000000000000000001010 /
b010 9
b100000 ;
b010 D
b100000 Q
b010 S
0T
b010 \
b00000000010001100011100000100000 ^
b00000000000000000000000000001010 a
b00111 c
b00000001000110001110000010000000 d
b00000000000000001110000010010000 h
b00000000000000000011100000100000 i
b00000000000000001110000010000000 j
b00000000000000000000000000001010 m
0n
b00000000000000000011100000100000 u
b00000000000000001110000010000000 v
b00000000000000001110000010000000 x
b00000000000000001110000010010000 y
b00000000000000001110000010010000 {
b00000001000110001110000010000000 ""
0%"
b00111 )"
b00000000000000000000000000001010 *"
b00111 ."
b00111 0"
b00000000000000000000000000001010 1"
b00000000000000000000000000001010 4"
b0011100000100000 5"
b00000000000000000011100000100000 6"
b00000000000000000011100000100000 8"
b010 ="
b00000000000000000000000000001010 >"
#35000000
1!
b00000000000000000000000000010000 #
1*
b00000000000000000000000000010000 ,
1T
b00000000000000000000000000010000 `
b00000000000000000000000000010100 e
b00000000000000000000000000010100 f
b00000000000000000000000000010100 g
b00000000000000001110000010010100 h
1n
b00000000000000000000000000010100 p
b00000000000000000000000000010000 q
b00000000000000000000000000010000 r
b00000000000000000000000000010100 t
b00000000000000000000000000010100 w
b00000000000000001110000010010100 y
b00000000000000000000000000010100 z
b00000000000000001110000010010100 {
b00000000000000000000000000010100 }
b00000000000000000000000000010100 !"
b00000000000000000000000000010100 $"
1%"
#40000000
0!
b00000000000000000000000000000000 &
b00000000111000000000000000000000 )
0*
b00000000111000000000000000000000 -
b00000000000000000000000000000000 0
b--- 9
b000000 ;
b--- D
b000000 Q
b--- S
0T
b--- \
b00000000111000000000000000000000 ^
b00000000000000000000000000000000 b
b00000 c
b00000011100000000000000000000000 d
b00000000000000000000000000010100 h
b00000000000000000000000000000000 i
b00000000000000000000000000000000 j
b00000000000000000000000000001010 k
b00000000000000000000000000000000 l
0n
b00000000000000000000000000000000 u
b00000000000000000000000000000000 v
b00000000000000000000000000000000 x
b00000000000000000000000000010100 y
b00000000000000000000000000010100 {
b00000011100000000000000000000000 ""
0%"
b00111 '"
b00000 ("
b00000 )"
b00000000000000000000000000001010 +"
b00000000000000000000000000000000 ,"
b00000 -"
b00000 ."
b00000 0"
b0000000000000000 5"
b00000000000000000000000000000000 6"
b00000000000000000000000000000000 7"
b00000000000000000000000000000000 8"
b00000000000000000000000000000000 :"
b00000000000000000000000000001010 ;"
b00000000000000000000000000000000 <"
b--- ="
#45000000
1!
b00000000000000000000000000010100 #
1*
b00000000000000000000000000010100 ,
1T
b00000000000000000000000000010100 `
b00000000000000000000000000011000 e
b00000000000000000000000000011000 f
b00000000000000000000000000011000 g
b00000000000000000000000000011000 h
1n
b00000000000000000000000000011000 p
b00000000000000000000000000010100 q
b00000000000000000000000000010100 r
b00000000000000000000000000011000 t
b00000000000000000000000000011000 w
b00000000000000000000000000011000 y
b00000000000000000000000000011000 z
b00000000000000000000000000011000 {
b00000000000000000000000000011000 }
b00000000000000000000000000011000 !"
b00000000000000000000000000011000 $"
1%"
#50000000
0!
b00001000111000000000000000000000 )
0*
b00001000111000000000000000000000 -
04
05
16
b010 9
b000010 :
0A
0B
1C
b010 D
b00 E
b000010 G
0L
0M
1N
b00 O
b000000100 P
b00 R
b010 S
0T
0Y
0Z
1[
b010 \
b00001000111000000000000000000000 ^
b00000011100000000000000000000000 e
0n
b00000011100000000000000000000000 p
1#"
b00000011100000000000000000000000 $"
0%"
0&"
0/"
b010 ="
#55000000
1!
b00000011100000000000000000000000 #
1*
b00000011100000000000000000000000 ,
1T
b00000011100000000000000000000000 `
b00000011100000000000000000000100 f
b00000011100000000000000000000100 g
b00000011100000000000000000000100 h
1n
b00000011100000000000000000000000 q
b00000011100000000000000000000000 r
b00000011100000000000000000000100 t
b00000011100000000000000000000100 w
b00000011100000000000000000000100 y
b00000011100000000000000000000100 z
b00000011100000000000000000000100 {
b00000011100000000000000000000100 }
b00000011100000000000000000000100 !"
1%"
#60000000
0!
1"
0*
0T
0n
0%"
