blatt02/Gruppe051_Blatt2/2.1.c/testbench.vcd
$date
  Fri Oct 29 00:02:05 2021
$end
$version
  GHDL v0
$end
$timescale
  1 fs
$end
$var reg 1 ! a $end
$var reg 1 " b $end
$var reg 1 # c $end
$var reg 1 $ d $end
$enddefinitions $end
#0
0!
1"
0#
1$
#10000000
X!
0"
X$
#20000000
W"
X#
#30000000
0!
Z"
0#
#40000000
1!
W"
X#
1$
#50000000
W!
L"
0#
X$
#60000000
H"
X#
1$
#70000000
L!
Z"
0#
X$
