blatt09/mips-hapra-sc/datapath/testbench.vcd
$date
  Tue Jan 18 16:31:02 2022
$end
$version
  GHDL v0
$end
$timescale
  1 fs
$end
$var reg 1 ! clk $end
$var reg 1 " finished $end
$var reg 3 # alucontrol[2:0] $end
$var reg 32 $ readdata[31:0] $end
$var reg 32 % instr[31:0] $end
$var reg 32 & pc[31:0] $end
$var reg 32 ' aluout[31:0] $end
$var reg 32 ( writedata[31:0] $end
$var reg 1 ) memtoreg $end
$var reg 1 * pcsrc $end
$var reg 1 + alusrc $end
$var reg 1 , regdst $end
$var reg 1 - regwrite $end
$var reg 1 . jump $end
$var reg 1 / zero $end
$var reg 1 0 reset $end
$scope module datapath1 $end
$var reg 1 1 clk $end
$var reg 1 2 reset $end
$var reg 1 3 memtoreg $end
$var reg 1 4 pcsrc $end
$var reg 1 5 alusrc $end
$var reg 1 6 regdst $end
$var reg 1 7 regwrite $end
$var reg 1 8 jump $end
$var reg 3 9 alucontrol[2:0] $end
$var reg 32 : readdata[31:0] $end
$var reg 32 ; instr[31:0] $end
$var reg 1 < zero $end
$var reg 32 = pc[31:0] $end
$var reg 32 > aluout[31:0] $end
$var reg 32 ? writedata[31:0] $end
$var reg 5 @ writereg[4:0] $end
$var reg 32 A pcjump[31:0] $end
$var reg 32 B pcnext[31:0] $end
$var reg 32 C pcnextbr[31:0] $end
$var reg 32 D pcplus4[31:0] $end
$var reg 32 E pcbranch[31:0] $end
$var reg 32 F signimm[31:0] $end
$var reg 32 G signimmsh[31:0] $end
$var reg 32 H srca[31:0] $end
$var reg 32 I srcb[31:0] $end
$var reg 32 J result[31:0] $end
$scope module pcreg $end
$var reg 1 K clk $end
$var reg 1 L reset $end
$var reg 32 M d[31:0] $end
$var reg 32 N q[31:0] $end
$upscope $end
$scope module pcadd1 $end
$var reg 32 O a[31:0] $end
$var reg 32 P b[31:0] $end
$var reg 32 Q y[31:0] $end
$upscope $end
$scope module immsh $end
$var reg 32 R a[31:0] $end
$var reg 32 S y[31:0] $end
$upscope $end
$scope module pcadd2 $end
$var reg 32 T a[31:0] $end
$var reg 32 U b[31:0] $end
$var reg 32 V y[31:0] $end
$upscope $end
$scope module pcbrmux $end
$var reg 32 W d0[31:0] $end
$var reg 32 X d1[31:0] $end
$var reg 1 Y s $end
$var reg 32 Z y[31:0] $end
$upscope $end
$scope module pcmux $end
$var reg 32 [ d0[31:0] $end
$var reg 32 \ d1[31:0] $end
$var reg 1 ] s $end
$var reg 32 ^ y[31:0] $end
$upscope $end
$scope module rf $end
$var reg 1 _ clk $end
$var reg 1 ` we3 $end
$var reg 5 a a1[4:0] $end
$var reg 5 b a2[4:0] $end
$var reg 5 c a3[4:0] $end
$var reg 32 d wd3[31:0] $end
$var reg 32 e rd1[31:0] $end
$var reg 32 f rd2[31:0] $end
$comment mem is not handled $end
$upscope $end
$scope module wrmux $end
$var reg 5 g d0[4:0] $end
$var reg 5 h d1[4:0] $end
$var reg 1 i s $end
$var reg 5 j y[4:0] $end
$upscope $end
$scope module resmux $end
$var reg 32 k d0[31:0] $end
$var reg 32 l d1[31:0] $end
$var reg 1 m s $end
$var reg 32 n y[31:0] $end
$upscope $end
$scope module se $end
$var reg 16 o a[15:0] $end
$var reg 32 p aext[31:0] $end
$upscope $end
$scope module srcbmux $end
$var reg 32 q d0[31:0] $end
$var reg 32 r d1[31:0] $end
$var reg 1 s s $end
$var reg 32 t y[31:0] $end
$upscope $end
$scope module mainalu $end
$var reg 32 u a[31:0] $end
$var reg 32 v b[31:0] $end
$var reg 3 w alucontrol[2:0] $end
$var reg 32 x result[31:0] $end
$var reg 1 y zero $end
$upscope $end
$upscope $end
$enddefinitions $end
#0
0!
0"
bUUU #
b00000000000000000000000000000011 $
b00000000000000100000000000000000 %
b00000000000000000000000000000000 &
bUUUUUUUUUUUUUUUUUUUUUUUUUUUUUUUU '
bUUUUUUUUUUUUUUUUUUUUUUUUUUUUUUUU (
1)
U*
U+
U,
1-
1.
0/
00
01
02
13
U4
U5
U6
17
18
bUUU 9
b00000000000000000000000000000011 :
b00000000000000100000000000000000 ;
0<
b00000000000000000000000000000000 =
bUUUUUUUUUUUUUUUUUUUUUUUUUUUUUUUU >
bUUUUUUUUUUUUUUUUUUUUUUUUUUUUUUUU ?
b00010 @
b00000000000010000000000000000000 A
b00000000000010000000000000000000 B
b00000000000000000000000000000100 C
b00000000000000000000000000000100 D
b00000000000000000000000000000100 E
b00000000000000000000000000000000 F
b00000000000000000000000000000000 G
b00000000000000000000000000000000 H
bUUUUUUUUUUUUUUUUUUUUUUUUUUUUUUUU I
b00000000000000000000000000000011 J
0K
0L
b00000000000010000000000000000000 M
b00000000000000000000000000000000 N
b00000000000000000000000000000000 O
b00000000000000000000000000000100 P
b00000000000000000000000000000100 Q
b00000000000000000000000000000000 R
b00000000000000000000000000000000 S
b00000000000000000000000000000100 T
b00000000000000000000000000000000 U
b00000000000000000000000000000100 V
b00000000000000000000000000000100 W
b00000000000000000000000000000100 X
UY
b00000000000000000000000000000100 Z
b00000000000000000000000000000100 [
b00000000000010000000000000000000 \
1]
b00000000000010000000000000000000 ^
0_
1`
b00000 a
b00010 b
b00010 c
b00000000000000000000000000000011 d
b00000000000000000000000000000000 e
bUUUUUUUUUUUUUUUUUUUUUUUUUUUUUUUU f
b00010 g
b00000 h
Ui
b00010 j
bUUUUUUUUUUUUUUUUUUUUUUUUUUUUUUUU k
b00000000000000000000000000000011 l
1m
b00000000000000000000000000000011 n
b0000000000000000 o
b00000000000000000000000000000000 p
bUUUUUUUUUUUUUUUUUUUUUUUUUUUUUUUU q
b00000000000000000000000000000000 r
Us
bUUUUUUUUUUUUUUUUUUUUUUUUUUUUUUUU t
b00000000000000000000000000000000 u
bUUUUUUUUUUUUUUUUUUUUUUUUUUUUUUUU v
bUUU w
bUUUUUUUUUUUUUUUUUUUUUUUUUUUUUUUU x
0y
#5000000
1!
b00000000000010000000000000000000 &
11
b00000000000010000000000000000000 =
b00000000000010000000000000000100 C
b00000000000010000000000000000100 D
b00000000000010000000000000000100 E
1K
b00000000000010000000000000000000 N
b00000000000010000000000000000000 O
b00000000000010000000000000000100 Q
b00000000000010000000000000000100 T
b00000000000010000000000000000100 V
b00000000000010000000000000000100 W
b00000000000010000000000000000100 X
b00000000000010000000000000000100 Z
b00000000000010000000000000000100 [
1_
#10000000
0!
b00000000000000000000000000000111 $
b00000000000001100000000000000000 %
01
b00000000000000000000000000000111 :
b00000000000001100000000000000000 ;
b00110 @
b00000000000110000000000000000000 A
b00000000000110000000000000000000 B
b00000000000000000000000000000111 J
0K
b00000000000110000000000000000000 M
b00000000000110000000000000000000 \
b00000000000110000000000000000000 ^
0_
b00110 b
b00110 c
b00000000000000000000000000000111 d
b00110 g
b00110 j
b00000000000000000000000000000111 l
b00000000000000000000000000000111 n
#15000000
1!
b00000000000110000000000000000000 &
11
b00000000000110000000000000000000 =
b00000000000110000000000000000100 C
b00000000000110000000000000000100 D
b00000000000110000000000000000100 E
1K
b00000000000110000000000000000000 N
b00000000000110000000000000000000 O
b00000000000110000000000000000100 Q
b00000000000110000000000000000100 T
b00000000000110000000000000000100 V
b00000000000110000000000000000100 W
b00000000000110000000000000000100 X
b00000000000110000000000000000100 Z
b00000000000110000000000000000100 [
1_
#20000000
0!
b00000000010001100000000000000000 %
b00000000000000000000000000000111 (
01
b00000000010001100000000000000000 ;
b00000000000000000000000000000111 ?
b00000001000110000000000000000000 A
b00000001000110000000000000000000 B
b00000000000000000000000000000011 H
b00000000000000000000000000000111 I
0K
b00000001000110000000000000000000 M
b00000001000110000000000000000000 \
b00000001000110000000000000000000 ^
0_
b00010 a
b00000000000000000000000000000011 e
b00000000000000000000000000000111 f
b00000000000000000000000000000111 q
b00000000000000000000000000000111 t
b00000000000000000000000000000011 u
b00000000000000000000000000000111 v
#25000000
1!
b00000001000110000000000000000000 &
11
b00000001000110000000000000000000 =
b00000001000110000000000000000100 C
b00000001000110000000000000000100 D
b00000001000110000000000000000100 E
1K
b00000001000110000000000000000000 N
b00000001000110000000000000000000 O
b00000001000110000000000000000100 Q
b00000001000110000000000000000100 T
b00000001000110000000000000000100 V
b00000001000110000000000000000100 W
b00000001000110000000000000000100 X
b00000001000110000000000000000100 Z
b00000001000110000000000000000100 [
1_
#30000000
0!
b010 #
b00000000010001100011100000000000 %
b00000000000000000000000000001010 '
0)
1,
01
03
16
b010 9
b00000000010001100011100000000000 ;
b00000000000000000000000000001010 >
b00111 @
b00000001000110001110000000000000 A
b00000001000110001110000000000000 B
b00000001000110001110000000000100 E
b00000000000000000011100000000000 F
b00000000000000001110000000000000 G
b00000000000000000000000000001010 J
0K
b00000001000110001110000000000000 M
b00000000000000000011100000000000 R
b00000000000000001110000000000000 S
b00000000000000001110000000000000 U
b00000001000110001110000000000100 V
b00000001000110001110000000000100 X
b00000001000110001110000000000000 \
b00000001000110001110000000000000 ^
0_
b00111 c
b00000000000000000000000000001010 d
b00111 h
1i
b00111 j
b00000000000000000000000000001010 k
0m
b00000000000000000000000000001010 n
b0011100000000000 o
b00000000000000000011100000000000 p
b00000000000000000011100000000000 r
b010 w
b00000000000000000000000000001010 x
#35000000
1!
b00000001000110001110000000000000 &
11
b00000001000110001110000000000000 =
b00000001000110001110000000000100 C
b00000001000110001110000000000100 D
b00000001000110011100000000000100 E
1K
b00000001000110001110000000000000 N
b00000001000110001110000000000000 O
b00000001000110001110000000000100 Q
b00000001000110001110000000000100 T
b00000001000110011100000000000100 V
b00000001000110001110000000000100 W
b00000001000110011100000000000100 X
b00000001000110001110000000000100 Z
b00000001000110001110000000000100 [
1_
#40000000
0!
b00000000111000000000000000000000 %
b00000000000000000000000000001010 '
b00000000000000000000000000000000 (
01
b00000000111000000000000000000000 ;
b00000000000000000000000000001010 >
b00000000000000000000000000000000 ?
b00000 @
b00000011100000000000000000000000 A
b00000011100000000000000000000000 B
b00000001000110001110000000000100 E
b00000000000000000000000000000000 F
b00000000000000000000000000000000 G
b00000000000000000000000000001010 H
b00000000000000000000000000000000 I
b00000000000000000000000000001010 J
0K
b00000011100000000000000000000000 M
b00000000000000000000000000000000 R
b00000000000000000000000000000000 S
b00000000000000000000000000000000 U
b00000001000110001110000000000100 V
b00000001000110001110000000000100 X
b00000011100000000000000000000000 \
b00000011100000000000000000000000 ^
0_
b00111 a
b00000 b
b00000 c
b00000000000000000000000000001010 d
b00000000000000000000000000001010 e
b00000000000000000000000000000000 f
b00000 g
b00000 h
b00000 j
b00000000000000000000000000001010 k
b00000000000000000000000000001010 n
b0000000000000000 o
b00000000000000000000000000000000 p
b00000000000000000000000000000000 q
b00000000000000000000000000000000 r
b00000000000000000000000000000000 t
b00000000000000000000000000001010 u
b00000000000000000000000000000000 v
b00000000000000000000000000001010 x
#45000000
1!
b00000011100000000000000000000000 &
11
b00000011100000000000000000000000 =
b00000011100000000000000000000100 C
b00000011100000000000000000000100 D
b00000011100000000000000000000100 E
1K
b00000011100000000000000000000000 N
b00000011100000000000000000000000 O
b00000011100000000000000000000100 Q
b00000011100000000000000000000100 T
b00000011100000000000000000000100 V
b00000011100000000000000000000100 W
b00000011100000000000000000000100 X
b00000011100000000000000000000100 Z
b00000011100000000000000000000100 [
1_
#50000000
0!
b00000000111000010000000000000101 %
b00000000000000000000000000001111 '
bUUUUUUUUUUUUUUUUUUUUUUUUUUUUUUUU (
1+
0,
01
15
06
b00000000111000010000000000000101 ;
b00000000000000000000000000001111 >
bUUUUUUUUUUUUUUUUUUUUUUUUUUUUUUUU ?
b00001 @
b00000011100001000000000000010100 A
b00000011100001000000000000010100 B
b00000011100000000000000000011000 E
b00000000000000000000000000000101 F
b00000000000000000000000000010100 G
b00000000000000000000000000000101 I
b00000000000000000000000000001111 J
0K
b00000011100001000000000000010100 M
b00000000000000000000000000000101 R
b00000000000000000000000000010100 S
b00000000000000000000000000010100 U
b00000011100000000000000000011000 V
b00000011100000000000000000011000 X
b00000011100001000000000000010100 \
b00000011100001000000000000010100 ^
0_
b00001 b
b00001 c
b00000000000000000000000000001111 d
bUUUUUUUUUUUUUUUUUUUUUUUUUUUUUUUU f
b00001 g
0i
b00001 j
b00000000000000000000000000001111 k
b00000000000000000000000000001111 n
b0000000000000101 o
b00000000000000000000000000000101 p
bUUUUUUUUUUUUUUUUUUUUUUUUUUUUUUUU q
b00000000000000000000000000000101 r
1s
b00000000000000000000000000000101 t
b00000000000000000000000000000101 v
b00000000000000000000000000001111 x
#55000000
1!
b00000011100001000000000000010100 &
11
b00000011100001000000000000010100 =
b00000011100001000000000000011000 C
b00000011100001000000000000011000 D
b00000011100001000000000000101100 E
1K
b00000011100001000000000000010100 N
b00000011100001000000000000010100 O
b00000011100001000000000000011000 Q
b00000011100001000000000000011000 T
b00000011100001000000000000101100 V
b00000011100001000000000000011000 W
b00000011100001000000000000101100 X
b00000011100001000000000000011000 Z
b00000011100001000000000000011000 [
1_
#60000000
0!
b00000000001000000000000000000000 %
b00000000000000000000000000001111 '
b00000000000000000000000000000000 (
01
b00000000001000000000000000000000 ;
b00000000000000000000000000001111 >
b00000000000000000000000000000000 ?
b00000 @
b00000000100000000000000000000000 A
b00000000100000000000000000000000 B
b00000011100001000000000000011000 E
b00000000000000000000000000000000 F
b00000000000000000000000000000000 G
b00000000000000000000000000001111 H
b00000000000000000000000000000000 I
b00000000000000000000000000001111 J
0K
b00000000100000000000000000000000 M
b00000000000000000000000000000000 R
b00000000000000000000000000000000 S
b00000000000000000000000000000000 U
b00000011100001000000000000011000 V
b00000011100001000000000000011000 X
b00000000100000000000000000000000 \
b00000000100000000000000000000000 ^
0_
b00001 a
b00000 b
b00000 c
b00000000000000000000000000001111 d
b00000000000000000000000000001111 e
b00000000000000000000000000000000 f
b00000 g
b00000 j
b00000000000000000000000000001111 k
b00000000000000000000000000001111 n
b0000000000000000 o
b00000000000000000000000000000000 p
b00000000000000000000000000000000 q
b00000000000000000000000000000000 r
b00000000000000000000000000000000 t
b00000000000000000000000000001111 u
b00000000000000000000000000000000 v
b00000000000000000000000000001111 x
#65000000
1!
b00000000100000000000000000000000 &
11
b00000000100000000000000000000000 =
b00000000100000000000000000000100 C
b00000000100000000000000000000100 D
b00000000100000000000000000000100 E
1K
b00000000100000000000000000000000 N
b00000000100000000000000000000000 O
b00000000100000000000000000000100 Q
b00000000100000000000000000000100 T
b00000000100000000000000000000100 V
b00000000100000000000000000000100 W
b00000000100000000000000000000100 X
b00000000100000000000000000000100 Z
b00000000100000000000000000000100 [
1_
#70000000
0!
1"
01
0K
0_
