blatt02/2.2.d/testbench.vcd
$date
  Thu Oct 28 22:58:04 2021
$end
$version
  GHDL v0
$end
$timescale
  1 fs
$end
$var reg 1 ! a $end
$var reg 1 " b $end
$var reg 1 # c $end
$var reg 1 $ d $end
$scope module and_g $end
$var reg 1 % input1 $end
$var reg 1 & input2 $end
$var reg 1 ' input3 $end
$var reg 1 ( and_result $end
$var reg 1 ) and_gate $end
$upscope $end
$enddefinitions $end
#0
0!
0"
0#
U$
0%
0&
0'
U(
0)
#5000000
1#
1'
#10000000
1"
0#
0$
1&
0'
0(
#15000000
1#
1'
#25000000
1!
0"
0#
1%
0&
0'
#35000000
1#
1'
#45000000
1"
0#
1&
0'
#55000000
1#
1'
1)
#65000000
1$
1(
