blatt06/6.4/testbench.vcd
$date
  Fri Dec 03 22:57:46 2021
$end
$version
  GHDL v0
$end
$timescale
  1 fs
$end
$var reg 1 ! clk $end
$var reg 1 " finished $end
$var reg 1 # reset $end
$var reg 1 $ t $end
$var reg 1 % red_a1_a3 $end
$var reg 1 & yellow_a1_a3 $end
$var reg 1 ' green_a1_a3 $end
$var reg 1 ( red_a2_a4 $end
$var reg 1 ) yellow_a2_a4 $end
$var reg 1 * green_a2_a4 $end
$scope module traffic1 $end
$var reg 1 + clk $end
$var reg 1 , t $end
$var reg 1 - reset $end
$var reg 1 . red_a1_a3 $end
$var reg 1 / yellow_a1_a3 $end
$var reg 1 0 green_a1_a3 $end
$var reg 1 1 red_a2_a4 $end
$var reg 1 2 yellow_a2_a4 $end
$var reg 1 3 green_a2_a4 $end
$comment state is not handled $end
$upscope $end
$enddefinitions $end
#0
0!
0"
0#
1$
U%
U&
U'
U(
U)
U*
0+
1,
0-
U.
U/
U0
U1
U2
U3
#5000000
1!
1%
0&
0'
1(
0)
0*
1+
1.
0/
00
11
02
03
#10000000
0!
0$
0+
0,
#15000000
1!
1&
1+
1.
1/
11
#20000000
0!
0+
#25000000
1!
0%
0&
1'
1+
0.
0/
10
11
#30000000
0!
0+
#35000000
1!
1&
0'
1+
1/
00
11
#40000000
0!
0+
#45000000
1!
1%
0&
1+
1.
0/
11
#50000000
0!
0+
#55000000
1!
1)
1+
1.
11
12
#60000000
0!
0+
#65000000
1!
0(
0)
1*
1+
1.
01
02
13
#70000000
0!
0+
#75000000
1!
1)
0*
1+
1.
12
03
#80000000
0!
1"
0+
